﻿STT,Màu tóc,Chiều cao,Cân nặng,Dùng thuốc,Kết quả
1,Đen,Tầm thước,Nhẹ,Không,Bị rám
2,Đen,Cao,Vừa phải,Có,Không
3,Râm,Thấp,Vừa phải,Có,Không
4,Đen,Thấp,Vừa phải,Không,Bị rám
5,Bạc,Tầm thước,Nặng,Không,Bị rám
6,Râm,Cao,Nặng,Không,Không
7,Râm,Tầm thước,Nặng,Không,Không
8,Đen,Thấp,Nhẹ,Có,Không
